US Healthcare Spending and Coverage
…
It looks like we now have the right header, but there are a bunch of NAs in the end of the data frame because most of it isnt useful data.

Lets take a closer look at the last 30 lines

tail(coverage, n=30)

## # A tibble: 30 x 29
##    Location             `2013__Employer` `2013__Non-Grou `2013__Medicaid`
##    <chr>                           <int>            <int>            <int>
##  1 Washington                    3541600           309000          1026800
##  2 West Virginia                  841300            42600           382500
##  3 Wisconsin                     3154500           225300           907600
##  4 Wyoming                        305900            19500            74200
##  5 Notes                              NA               NA               NA
##  6 The majority of our               NA               NA               NA
##  7 <NA>                               NA               NA               NA
##  8 "In this analysis,                NA               NA               NA
##  9 <NA>                               NA               NA               NA
## 10 Data exclude a smal               NA               NA               NA
## # ... with 20 more rows, and 25 more variables: `2013__Medicare` <int>,
## #   `2013__Other Public` <chr>, `2013__Uninsured` <int>,
## #   `2013__Total` <int>, `2014__Employer` <int>, `2014__Non-Group` <int>,
## #   `2014__Medicaid` <int>, `2014__Medicare` <int>, `2014__Other
## #   Public` <chr>, `2014__Uninsured` <int>, `2014__Total` <int>,
## #   `2015__Employer` <int>, `2015__Non-Group` <int>,
## #   `2015__Medicaid` <int>, `2015__Medicare` <int>, `2015__Other
## #   Public` <chr>, `2015__Uninsured` <int>, `2015__Total` <int>,
## #   `2016__Employer` <int>, `2016__Non-Group` <dbl>,
…
This function gathers multiple columns and collapses them into new key-value pairs. This transform data from wide format into a long format.

The key is the name of the new column that you are creating which contains the values of the column headings that you are gathering

The value is the name of the new column that will contain the values themselves

The third argument defines the columns to gather

For example, here we create a column titled year_type and coverage. We also want to keep the Location column as it is because it also contains observational level data.

coverage <- gather(coverage, "year_type", "tot_coverage", -Location)
coverage

## # A tibble: 1,456 x 3
##    Location             year_type      tot_coverage
##    <chr>                <chr>          <chr>       
##  1 United States        2013__Employer 155696900   
##  2 Alabama              2013__Employer 2126500     
##  3 Alaska               2013__Employer 364900      
##  4 Arizona              2013__Employer 2883800     
##  5 Arkansas             2013__Employer 1128800     
##  6 California           2013__Employer 17747300    
##  7 Colorado             2013__Employer 2852500     
##  8 Connecticut          2013__Employer 2030500     
##  9 Delaware             2013__Employer 473700      
## 10 District of Columbia 2013__Employer 324300      
## # ... with 1,446 more rows
Now we see each row contains one observation. Namely, a Location, a year_type and coverage. It would be nice to separate out the information in the year_type column into two columns. We will explore how to do that in the Data Wrangling section below. For now lets learn more about the tidyr package.

Convert back to a wide format

In contrast to gathering multiple columns into key-value pairs, we can spread a key-value pair across multiple columns.

The function spread() does just that. It transforms data from a long format into a wide format.

The key is the name of the column in your data set that contains the values of the column headings that you are spreading across multiple columns

The value is the name of the column that contains the values for the multiple columns

spread(coverage, year_type, tot_coverage)

## # A tibble: 52 x 29
##    Location             `2013__Employer` `2013__Medicaid` `2013__Medicare`
##    <chr>                <chr>            <chr>            <chr>           
##  1 Alabama              2126500          869700           783000          
##  2 Alaska               364900           95000            55200           
##  3 Arizona              2883800          1346100          842000          
##  4 Arkansas             1128800          600800           515200          
##  5 California           17747300         8344800          3828500         
##  6 Colorado             2852500          697300           549700          
##  7 Connecticut          2030500          532000           475300          
##  8 Delaware             473700           192700           141300          
##  9 District of Columbia 324300           174900           59900           
## 10 Florida              8023400          3190900          3108800         
## # ... with 42 more rows, and 25 more variables: `2013__Non-Group` <chr>,
## #   `2013__Other Public` <chr>, `2013__Total` <chr>,
## #   `2013__Uninsured` <chr>, `2014__Employer` <chr>,
## #   `2014__Medicaid` <chr>, `2014__Medicare` <chr>,
## #   `2014__Non-Group` <chr>, `2014__Other Public` <chr>,
## #   `2014__Total` <chr>, `2014__Uninsured` <chr>, `2015__Employer` <chr>,
## #   `2015__Medicaid` <chr>, `2015__Medicare` <chr>,
## #   `2015__Non-Group` <chr>, `2015__Other Public` <chr>,
## #   `2015__Total` <chr>, `2015__Uninsured` <chr>, `2016__Employer` <chr>,
## #   `2016__Medicaid` <chr>, `2016__Medicare` <chr>,
## #   `2016__Non-Group` <chr>, `2016__Other Public` <chr>,
## #   `2016__Total` <chr>, `2016__Uninsured` <chr>

Convert healthcare spending data to a tidy format

Lets do the same for the spending data. In this case I will use year and spending for the key and value. We also want to keep Location like before.

spending <- gather(spending, "year", "tot_spending", -Location)
spending

## # A tibble: 1,248 x 3
##    Location             year                        tot_spending
##    <chr>                <chr>                              <int>
##  1 United States        1991__Total Health Spending       675896
##  2 Alabama              1991__Total Health Spending        10393
##  3 Alaska               1991__Total Health Spending         1458
##  4 Arizona              1991__Total Health Spending         9269
##  5 Arkansas             1991__Total Health Spending         5632
##  6 California           1991__Total Health Spending        81438
##  7 Colorado             1991__Total Health Spending         8460
##  8 Connecticut          1991__Total Health Spending        10950
##  9 Delaware             1991__Total Health Spending         1938
## 10 District of Columbia 1991__Total Health Spending         2800
## # ... with 1,238 more rows
…
First, lets separate the year_type column in the coverage dataset to two columns: year and health coverage type.

To do this, we will use the separate() function in the tidyr package.

Note:

separate() = separate one column into multiple columns

unite() = unite multiple columns into one

coverage %>% 
  separate(year_type, sep="__", 
           into=c("year", "type"))

## # A tibble: 1,456 x 4
##    Location             year  type     tot_coverage
##    <chr>                <chr> <chr>    <chr>       
##  1 United States        2013  Employer 155696900   
##  2 Alabama              2013  Employer 2126500     
##  3 Alaska               2013  Employer 364900      
##  4 Arizona              2013  Employer 2883800     
##  5 Arkansas             2013  Employer 1128800     
##  6 California           2013  Employer 17747300    
##  7 Colorado             2013  Employer 2852500     
##  8 Connecticut          2013  Employer 2030500     
##  9 Delaware             2013  Employer 473700      
## 10 District of Columbia 2013  Employer 324300      
## # ... with 1,446 more rows

We see that we now have two columns, except the year column was converted to a character. If we look at the help file ?separate, we see we can use the convert=TRUE argument to convert the character to an integer.

coverage <- 
  coverage %>% 
  separate(year_type, sep="__", 
           into=c("year", "type"), 
           convert = TRUE)
coverage

## # A tibble: 1,456 x 4
##    Location              year type     tot_coverage
##    <chr>                <int> <chr>    <chr>       
##  1 United States         2013 Employer 155696900   
##  2 Alabama               2013 Employer 2126500     
##  3 Alaska                2013 Employer 364900      
##  4 Arizona               2013 Employer 2883800     
##  5 Arkansas              2013 Employer 1128800     
##  6 California            2013 Employer 17747300    
##  7 Colorado              2013 Employer 2852500     
##  8 Connecticut           2013 Employer 2030500     
##  9 Delaware              2013 Employer 473700      
## 10 District of Columbia  2013 Employer 324300      
## # ... with 1,446 more rows
…
##               
##                2013 2014 2015 2016
##   Employer       52   52   52   52
##   Medicaid       52   52   52   52
##   Medicare       52   52   52   52
##   Non-Group      52   52   52   52
##   Other Public   52   52   52   52
##   Total          52   52   52   52
##   Uninsured      52   52   52   52

Next, we will look at the life expectancy (life) data.

life

## # A tibble: 52 x 2
##    Location             `Life Expectancy at Birth (years)`
##    <chr>                                             <dbl>
##  1 United States                                      78.9
##  2 Alabama                                            75.4
##  3 Alaska                                             78.3
##  4 Arizona                                            79.6
##  5 Arkansas                                           76  
##  6 California                                         80.8
##  7 Colorado                                           80  
##  8 Connecticut                                        80.8
##  9 Delaware                                           78.4
## 10 District of Columbia                               76.5
## # ... with 42 more rows

The second column has a long name with space in it. Lets rename it to something shorter with the rename() function.

life <- 
  life %>% 
  rename(life_exp_years = `Life Expectancy at Birth (years)`)
life

## # A tibble: 52 x 2
##    Location             life_exp_years
##    <chr>                         <dbl>
##  1 United States                  78.9
##  2 Alabama                        75.4
##  3 Alaska                         78.3
##  4 Arizona                        79.6
##  5 Arkansas                       76  
##  6 California                     80.8
##  7 Colorado                       80  
##  8 Connecticut                    80.8
##  9 Delaware                       78.4
## 10 District of Columbia           76.5
## # ... with 42 more rows

Finally, lets return to the spending data. We see the year column has information that we do not want. We only care about the year.

spending

## # A tibble: 1,248 x 3
##    Location             year                        tot_spending
##    <chr>                <chr>                              <int>
##  1 United States        1991__Total Health Spending       675896
##  2 Alabama              1991__Total Health Spending        10393
##  3 Alaska               1991__Total Health Spending         1458
##  4 Arizona              1991__Total Health Spending         9269
##  5 Arkansas             1991__Total Health Spending         5632
##  6 California           1991__Total Health Spending        81438
##  7 Colorado             1991__Total Health Spending         8460
##  8 Connecticut          1991__Total Health Spending        10950
##  9 Delaware             1991__Total Health Spending         1938
## 10 District of Columbia 1991__Total Health Spending         2800
## # ... with 1,238 more rows
Lets use the separate() function with convert=TRUE to separate the year column into columns. Then, we introduce another dplyr action verb: select().

The two most basic functions are select() and filter() which selects columns and filters rows, respectively.

Selecting columns using select()

In the separate() function, we create two new columns called year and name. Then, we ask to return all the columns, except name. To select all the columns except a specific column, use the - (subtraction) operator (also known as negative indexing).

spending <- 
  spending %>% 
  separate(year, sep="__", into=c("year", "name"), convert = TRUE) %>% 
  select(-name)
spending

## # A tibble: 1,248 x 3
##    Location              year tot_spending
##    <chr>                <int>        <int>
##  1 United States         1991       675896
##  2 Alabama               1991        10393
##  3 Alaska                1991         1458
##  4 Arizona               1991         9269
##  5 Arkansas              1991         5632
##  6 California            1991        81438
##  7 Colorado              1991         8460
##  8 Connecticut           1991        10950
##  9 Delaware              1991         1938
## 10 District of Columbia  1991         2800
## # ... with 1,238 more rows

The function select() is much more powerful though. To select a range of columns by name, use the : (colon) operator

coverage %>% 
  select(year:type)

## # A tibble: 1,456 x 2
##     year type    
##    <int> <chr>   
##  1  2013 Employer
##  2  2013 Employer
##  3  2013 Employer
##  4  2013 Employer
##  5  2013 Employer
##  6  2013 Employer
##  7  2013 Employer
##  8  2013 Employer
##  9  2013 Employer
## 10  2013 Employer
## # ... with 1,446 more rows

To select all columns that start with the character string t, use the function starts_with()

coverage %>% 
  select(starts_with("t"))

## # A tibble: 1,456 x 2
##    type     tot_coverage
##    <chr>           <int>
##  1 Employer    155696900
##  2 Employer      2126500
##  3 Employer       364900
##  4 Employer      2883800
##  5 Employer      1128800
##  6 Employer     17747300
##  7 Employer      2852500
##  8 Employer      2030500
##  9 Employer       473700
## 10 Employer       324300
## # ... with 1,446 more rows
…
matches() = Select columns that match a regular expression

one_of() = Select columns names that are from a group of names

Selecting rows using filter()

Lets say we want to know how many peopled had health insurance coverage in Maryland?

First, we can filter the rows for years in 2007.

coverage %>% 
  filter(Location == "Maryland")

## # A tibble: 28 x 4
##    Location  year type         tot_coverage
##    <chr>    <int> <chr>               <int>
##  1 Maryland  2013 Employer          3172400
##  2 Maryland  2013 Non-Group          320800
##  3 Maryland  2013 Medicaid           889800
##  4 Maryland  2013 Medicare           751500
##  5 Maryland  2013 Other Public       124400
##  6 Maryland  2013 Uninsured          682000
##  7 Maryland  2013 Total             5940900
##  8 Maryland  2014 Employer          3558800
##  9 Maryland  2014 Non-Group          361700
## 10 Maryland  2014 Medicaid           807900
## # ... with 18 more rows
…
What happened between 2013 and 2014? Hint

Arrange or re-order rows using arrange()

Now, lets say we want to see which states has the To arrange (or re-order) rows by a particular column such as the population, list the name of the column you want to arrange the rows by

coverage %>% 
    arrange(tot_coverage)

## # A tibble: 1,456 x 4
##    Location       year type         tot_coverage
##    <chr>         <int> <chr>               <int>
##  1 Vermont        2013 Other Public         9900
##  2 Vermont        2014 Other Public         9900
##  3 Rhode Island   2013 Other Public        12100
##  4 Wyoming        2014 Other Public        13600
##  5 Delaware       2013 Other Public        13800
##  6 Vermont        2016 Other Public        14600
##  7 New Hampshire  2013 Other Public        15100
##  8 Wyoming        2016 Other Public        16400
##  9 Vermont        2015 Other Public        16500
## 10 North Dakota   2014 Other Public        17300
## # ... with 1,446 more rows
…
