Importance of Skepticism in Data Science
…
The first columns denotes group and we simulated of groups each with 25 observations. For each group we generate 25 observations, which are stored in the second and third columns. These are just random independent normally distributed data. So we know, because we constructed the simulation, that \(X\) and \(Y\) are not correlated.

Next, we compute the correlation between X and Y for each group and look at the max:

res <- sim_data %>% 
  group_by(group) %>% 
  summarize(r = cor(X, Y)) %>% 
  arrange(desc(r))
res

## # A tibble: 1,000,000 x 2
##     group     r
##     <int> <dbl>
##  1 625883 0.857
##  2 892542 0.767
##  3 545703 0.766
##  4 908306 0.765
##  5 412189 0.762
##  6 114308 0.760
##  7  12623 0.760
##  8 273433 0.754
##  9 274449 0.753
## 10 625177 0.750
## # ... with 999,990 more rows
…
