Statistical Models for Election Polling
…
library(rvest)
state_url <- "https://www.realclearpolitics.com/epolls/2018/senate/fl/florida_senate_scott_vs_nelson-6246.html"
h <- read_html(state_url)

What does the data look like:

tmp <- h %>% 
  html_table() %>% 
  .[[4]] %>% 
  as_tibble() %>%
  filter(Poll != "RCP Average")
tmp

## # A tibble: 40 x 7
##    Poll              Date     Sample MoE   `Nelson (D)` `Scott (R)` Spread
##    <chr>             <chr>    <chr>  <chr>        <dbl>       <dbl> <chr> 
##  1 NY Times/SienaNY 10/23 - 737 LV 4.0             48          44 Nelso
##  2 CBS News/YouGovC 10/23 - 991 LV 4.0             46          46 Tie   
##  3 GravisGravis      10/22 - 773 LV 3.5             49          45 Nelso
##  4 St. Pete PollsSt 10/20 - 1575  2.5             48          49 Scott
##  5 WCTV-TVWCTV-TV    10/16 - 800 LV 3.5             46          45 Nelso
##  6 Florida Atlantic 10/18 - 740 LV 3.6             41          42 Scott
##  7 Bay News 9/Surve 10/18 - 665 LV 5.0             49          41 Nelso
##  8 QuinnipiacQuinni 10/17 - 1161  3.5             52          46 Nelso
##  9 CNNCNN            10/16 - 759 LV 4.2             50          45 Nelso
## 10 St. Pete PollsSt 10/15 - 1974  2.2             47          49 Scott
## # ... with 30 more rows
…
         D = `Nelson (D)`/100, 
         diff = D-R) %>% 
  separate(col=Date, into=c("start_date", "end_date"), 
           sep=" - ", fill = "right") %>% 
  mutate(start_date = mdy(paste0(start_date,"/18")), 
         end_date = mdy(paste0(end_date,"/18")), 
         days = start_date - ymd('2018-11-06'), 
             weeks = floor(days/7)) %>% 
  separate(Sample, into=c("n", "pop_type"), 
           sep=" ", fill="left") %>% 
  mutate(n = as.numeric(n)) %>% 
      select(-MoE, -Spread, -`Scott (R)`, -`Nelson (D)`) 
polls

## # A tibble: 40 x 10
##    Poll     start_date end_date       n pop_type     R     D    diff days 
##    <chr>    <date>     <date>     <dbl> <chr>    <dbl> <dbl>   <dbl> <tim>
##  1 NY Time 2018-10-23 2018-10-27   737 LV        0.44  0.48  0.0400 -14  
##  2 CBS New 2018-10-23 2018-10-26   991 LV        0.46  0.46  0      -14  
##  3 GravisG 2018-10-22 2018-10-23   773 LV        0.45  0.49  0.0400 -15  
##  4 St. Pet 2018-10-20 2018-10-21  1575 LV        0.49  0.48 -0.01   -17  
##  5 WCTV-TV 2018-10-16 2018-10-23   800 LV        0.45  0.46  0.01   -21  
##  6 Florida 2018-10-18 2018-10-21   740 LV        0.42  0.41 -0.01   -19  
##  7 Bay New 2018-10-18 2018-10-21   665 LV        0.41  0.49  0.08   -19  
##  8 Quinnip 2018-10-17 2018-10-21  1161 LV        0.46  0.52  0.06   -20  
##  9 CNNCNN   2018-10-16 2018-10-20   759 LV        0.45  0.5   0.0500 -21  
## 10 St. Pet 2018-10-15 2018-10-16  1974 LV        0.49  0.47 -0.02   -22  
## # ... with 30 more rows, and 1 more variable: weeks <time>
…
