Random Forests and Support Vector Machines
…
The predicted cost for those restaurants is the mean cost for the restaurants in the individual regions.

Motivating example 2

Consider the following dataset containing information on 572 different Italian olive oils from multiple regions in Italy.

olives <- read.csv("../data/olives.csv", as.is=TRUE) %>% tbl_df
names(olives)[1] <- "province"
region_names <- c("Southern Italy","   Sardinia","Northern Italy")
olives <- olives %>% mutate(Region=factor(region_names[Region]))
olives

## # A tibble: 572 x 11
##    province   Region      Area palmitic palmitoleic stearic oleic linoleic
##    <chr>      <fct>      <int>    <int>       <int>   <int> <int>    <int>
##  1 North-Apu Southern      1     1075          75     226  7823      672
##  2 North-Apu Southern      1     1088          73     224  7709      781
##  3 North-Apu Southern      1      911          54     246  8113      549
##  4 North-Apu Southern      1      966          57     240  7952      619
##  5 North-Apu Southern      1     1051          67     259  7771      672
##  6 North-Apu Southern      1      911          49     268  7924      678
##  7 North-Apu Southern      1      922          66     264  7990      618
##  8 North-Apu Southern      1     1100          61     235  7728      734
##  9 North-Apu Southern      1     1082          60     239  7745      709
## 10 North-Apu Southern      1     1037          55     213  7944      633
## # ... with 562 more rows, and 3 more variables: linolenic <int>,
## #   arachidic <int>, eicosenoic <int>
…
