Parallel Programming with Futures
…
 Conflicts  tidyverse_conflicts() 
 dplyr::filter() masks stats::filter()
 dplyr::lag()    masks stats::lag()

dat <- read_csv("data/nmmaps/denv.csv", col_types = "Didd")

The first few rows of the data look as follows.

dat

# A tibble: 6,940 x 4
   date       death pm10tmean  tmpd
   <date>     <int>     <dbl> <dbl>
 1 1987-01-01    22     5.55   25.5
 2 1987-01-02    22    29.3    32  
 3 1987-01-03    21     0.965  35.5
 4 1987-01-04    19   -10.8    46.8
 5 1987-01-05    22     9.36   41.8
 6 1987-01-06    19    -8.67   30.8
 7 1987-01-07    19    -5.83   29.8
 8 1987-01-08    23    -8.83   23.5
 9 1987-01-09    21    60.3    29  
10 1987-01-10    15    19.6    32  
# ... with 6,930 more rows
…
plan(multisession)
dat %<-% read_csv("data/nmmaps/denv.csv", col_types = "Didd")

At this point, the expression has not been evaluated yet, but it will be when dat is needed. We can create more futures this way too.

fit %<-% glm(death ~ ns(tmpd, 3) + ns(date, 8 * 19) + pm10tmean,
             data = dat, family = poisson)

Since the glm() function needs the dat object, the dat future will be evaluated and fed into the glm() function. Note that theres no need to use the value() function to get the value of the future.

results %<-% tidy(fit)
print(results)

# A tibble: 157 x 5
   term              estimate std.error statistic   p.value
   <chr>                <dbl>     <dbl>     <dbl>     <dbl>
 1 (Intercept)         3.00      0.0778    38.6   0        
 2 ns(tmpd, 3)1        0.0416    0.0275     1.51  0.131    
 3 ns(tmpd, 3)2        0.131     0.0910     1.44  0.151    
 4 ns(tmpd, 3)3        0.120     0.0368     3.25  0.00114  
 5 ns(date, 8 * 19)1  -0.0432    0.0922    -0.469 0.639    
 6 ns(date, 8 * 19)2  -0.481     0.123     -3.90  0.0000970
 7 ns(date, 8 * 19)3  -0.250     0.112     -2.23  0.0258   
 8 ns(date, 8 * 19)4  -0.524     0.121     -4.33  0.0000150
 9 ns(date, 8 * 19)5  -0.139     0.114     -1.22  0.222    
10 ns(date, 8 * 19)6  -0.292     0.134     -2.17  0.0299   
# ... with 147 more rows
…
